﻿{
  "$schema": "https://json.schemastore.org/launchsettings.json",
  "iisSettings": {
    "windowsAuthentication": false,
    "anonymousAuthentication": true,
    "iisExpress": {
      "applicationUrl": "http://localhost:46734",
      "sslPort": 44316
    }
  },
  "profiles": {
    "IIS Express": {
      "commandName": "IISExpress",
      "launchBrowser": true,
      "launchUrl": "swagger",
      "environmentVariables": {
        "ASPNETCORE_ENVIRONMENT": "Development"
      },
      "preTest": {
        "commandName": "Project",
        "dotnetRunMessages": true,
        "launchBrowser": true,
        "launchUrl": "swagger",
        "applicationUrl": "https://localhost:7115;http://localhost:5292",
        "environmentVariables": {
          "ASPNETCORE_ENVIRONMENT": "Development"
        }
      }

    }
  }
}
